<svg width="31" height="24" viewBox="0 0 31 24" fill="none" xmlns="http://www.w3.org/2000/svg">
<path d="M0.951416 0.913208V3.41321H30.9514V0.913208H0.951416ZM0.951416 10.9132V13.4132H30.9514V10.9132H0.951416ZM0.951416 20.9132V23.4132H30.9514V20.9132H0.951416Z" fill="black"/>
</svg>
